{
  "PlayListName": "test",
  "Effective": "auto",
  "PlayerList": [
    {
      "name": "01",
      "time": 10,
      "type": "html",
      "path": "/01/index.html",
      "width": 100,
      "height": 100,
      "x": 0,
      "y": 0,
      "number": "auto"
    },
    {
      "name": "02",
      "time": 10,
      "type": "video",
      "path": "/02/video/movie.mp4",
      "volume": 100,
      "width": 100,
      "height": 100,
      "x": 0,
      "y": 0,
      "number": "auto"
    },
    {
      "name": "03",
      "time": 10,
      "type": "html",
      "path": "/03/index.html",
      "width": 100,
      "height": 100,
      "x": 0,
      "y": 0,
      "number": "auto"
    },
    [
      {
        "name": "04",
        "time": 10,
        "type": "html",
        "path": "/01/index.html",
        "width": 50,
        "height": 100,
        "x": 0,
        "y": 0,
        "number": "auto"
      },
      {
        "name": "05",
        "time": 10,
        "type": "video",
        "path": "/02/video/movie.mp4",
        "width": 50,
        "height": 100,
        "x": 50,
        "y": 0,
        "number": "auto"
      }
    ],
    [
      {
        "name": "06",
        "time": 10,
        "type": "video",
        "path": "/02/video/movie.mp4",
        "volume": 100,
        "width": 50,
        "height": 100,
        "x": 0,
        "y": 0,
        "number": "auto"
      },
      {
        "name": "07",
        "time": 10,
        "type": "html",
        "path": "/03/index.html",
        "width": 50,
        "height": 100,
        "x": 50,
        "y": 0,
        "number": "auto"
      }
    ],
    {
      "name": "08",
      "time": 10,
      "type": "html",
      "path": "/03/index.html",
      "width": 100,
      "height": 100,
      "x": 0,
      "y": 0,
      "number": "auto"
    },
    [
      {
        "name": "09",
        "time": 10,
        "type": "html",
        "path": "/03/index.html",
        "volume": 100,
        "width": 50,
        "height": 100,
        "x": 0,
        "y": 0,
        "number": "auto"
      },
      {
        "name": "10",
        "time": 10,
        "type": "html",
        "path": "/01/index.html",
        "width": 50,
        "height": 100,
        "x": 50,
        "y": 0,
        "number": "auto"
      }
    ]
  ],
  "Tasks": {
    "02:31": [
      {
        "name": "10",
        "time": 10,
        "type": "html",
        "path": "/01/index.html",
        "width": 100,
        "height": 100,
        "x": 0,
        "y": 0,
        "number": "auto"
      }
    ]
  },
  "FilesList": {
    "http://localhost/Files/1.mp4": "02/video/movie.mp4",
    "http://localhost/Files/image/01.jpg": "01/image/01.jpg",
    "http://localhost/Files/html/index.html": "01/index.html",
    "http://localhost/Files/html/css/style.css": "01/css/style.css",
    "http://localhost/Files/html/img/a.jpg": "01/img/a.jpg",
    "http://localhost/Files/html/js/index.js": "01/js/index.js"
  }
}